
{
    "region" : "us-east-1",
    "profile" : "halilenver",
    "configuration" : "Release",
    "image-tag"     : "tutorialdeploywebapptoaws:tutorialdeploywebapptoaws",
    "docker-build-working-dir" : "",
    "cluster"                  : "cluster_tutorial",
    "launch-type"              : "FARGATE",
    "launch-subnets"           : "subnet-04085c43ecdf6b16b,subnet-022ffb9f2c0a14fbd,subnet-0103be47c8f6aef38,subnet-0ae3e3c524ab3aa40,subnet-08817258d72b60321,subnet-05191fc67bafa4433",
    "launch-security-groups"   : "sg-023258eb4aee9a099",
    "assign-public-ip"         : true,
    "task-definition-name"     : "TutorialDeployWebAppToAWS",
    "task-cpu"                 : "256",
    "task-memory"              : "512",
    "platform-version"         : "LATEST",
    "task-execution-role"      : "ecsTaskExecutionRole",
    "container-name"           : "TutorialDeployWebAppToAWS",
    "container-port-mapping"   : "80:80",
    "container-environment-variables" : "\"ASPNETCORE_ENVIRONMENT\"=\"Production\"",
    "skip-image-push"                 : false,
    "cluster-service"                 : "cluster_tutorial/TutorialDeployWebAppToAWS",
    "desired-count"                   : 1,
    "deployment-minimum-healthy-percent" : 50,
    "deployment-maximum-percent"         : 200,
    "vstoolkit-deployment-mode"          : "DeployService",
    "task-definition-task-role"          : "arn:aws:iam::268227426425:role/ecsTaskExecutionRole"
}